%YAML 1.1
%TAG !u! tag:unity3d.com,2011:
--- !u!114 &11400000
MonoBehaviour:
  m_ObjectHideFlags: 0
  m_CorrespondingSourceObject: {fileID: 0}
  m_PrefabInstance: {fileID: 0}
  m_PrefabAsset: {fileID: 0}
  m_GameObject: {fileID: 0}
  m_Enabled: 1
  m_EditorHideFlags: 0
  m_Script: {fileID: 11500000, guid: fd08e2a6444404d4787468930a77d512, type: 3}
  m_Name: BottledFury
  m_EditorClassIdentifier: 
  id: item_fury
  itemName: Bottled Fury
  price: 800
  maxStackSize: 3
  stackPerPurchase: 1
  buffDuration: 60
  buffTimer: 60
  itemIcon: {fileID: 21300000, guid: b35217b4ef2c4524fa5dbd4c5b6e1d91, type: 3}
  itemIconPNG: {fileID: 21300000, guid: 509feae5cb9dc8242a8ec51908779a9d, type: 3}
  sound: {fileID: 8300000, guid: 62b0ed06c279e3341be5b987028484ff, type: 3}
  itemType: 0
  description: 'The orcs of the Ocasuiris Dynasty were losing their lands there by
    the end of the second era. His royal alchemists managed to create a strong concoction
    with a horrible taste. But that he managed to get all the anger out of his consumer.
    Turning him into an attack machine until the effect wears off.



    Increases
    damage by 20% for 1 minute.'
