%YAML 1.1
%TAG !u! tag:unity3d.com,2011:
--- !u!114 &11400000
MonoBehaviour:
  m_ObjectHideFlags: 0
  m_CorrespondingSourceObject: {fileID: 0}
  m_PrefabInstance: {fileID: 0}
  m_PrefabAsset: {fileID: 0}
  m_GameObject: {fileID: 0}
  m_Enabled: 1
  m_EditorHideFlags: 0
  m_Script: {fileID: 11500000, guid: fd08e2a6444404d4787468930a77d512, type: 3}
  m_Name: GreedsAmulet
  m_EditorClassIdentifier: 
  id: item_amulet
  itemName: Greed's Amulet
  price: 1700
  maxStackSize: 1
  stackPerPurchase: 1
  buffDuration: 100
  buffTimer: 100
  itemIcon: {fileID: 21300000, guid: 18d296e834286664d970ab79324eb558, type: 3}
  itemIconPNG: {fileID: 21300000, guid: acc8297026c2d0b45b47014aa9435a4e, type: 3}
  sound: {fileID: 0}
  itemType: 1
  description: 'Before the planet existed, Greed created a number of amulets for
    her slaves as thanks for their hard work. Time later, the slaves began to murder
    each other in order to have another amulet in their hands. Seeing this, greed
    cursed these amulets, causing the amulet to disappear from existence when its
    bearer dies.



    Enemies drop an extra 4% money on death. It breaks when the
    player loses a life and only lasts for one level. It is also only effective when
    equipped.'
