%YAML 1.1
%TAG !u! tag:unity3d.com,2011:
--- !u!114 &11400000
MonoBehaviour:
  m_ObjectHideFlags: 0
  m_CorrespondingSourceObject: {fileID: 0}
  m_PrefabInstance: {fileID: 0}
  m_PrefabAsset: {fileID: 0}
  m_GameObject: {fileID: 0}
  m_Enabled: 1
  m_EditorHideFlags: 0
  m_Script: {fileID: 11500000, guid: fd08e2a6444404d4787468930a77d512, type: 3}
  m_Name: NewChance
  m_EditorClassIdentifier: 
  id: item_extralife
  itemName: New Chance
  price: 1200
  maxStackSize: 1
  stackPerPurchase: 1
  buffDuration: -1
  buffTimer: -1
  itemIcon: {fileID: 21300000, guid: 017de9c6977a2b14bb08a38ea1d9779a, type: 3}
  itemIconPNG: {fileID: 21300000, guid: aca33ddd8af7a554689f6eba91d5ffaa, type: 3}
  sound: {fileID: 8300000, guid: 3f999e5a90e445049a43a86c579df046, type: 3}
  itemType: 2
  description: 'Praying to the gods of Helvetia can have its benefits. However, the
    gods do not bestow their blessings without any offering. There have been cases
    of people who did not have any offerings to give so the gods took what was closest
    to them such as body parts. Thank the gods they also accept money as an offering...



    When
    purchased, it grants the player another life (Not equippable).'
