%YAML 1.1
%TAG !u! tag:unity3d.com,2011:
--- !u!114 &11400000
MonoBehaviour:
  m_ObjectHideFlags: 0
  m_CorrespondingSourceObject: {fileID: 0}
  m_PrefabInstance: {fileID: 0}
  m_PrefabAsset: {fileID: 0}
  m_GameObject: {fileID: 0}
  m_Enabled: 1
  m_EditorHideFlags: 0
  m_Script: {fileID: 11500000, guid: f940b079f2169714f9a9770978d6bdce, type: 3}
  m_Name: DeadlyEdge
  m_EditorClassIdentifier: 
  number: 0
  skillName: Deadly Edge
  magityCost: 25
  cooldownTime: 30
  buffDuration: 15
  skillIcon: {fileID: 21300000, guid: 8ab24267f439185479d9a4f73922385d, type: 3}
  skillIconPNG: {fileID: 21300000, guid: aac5327aec0b0f744828c99c97e2effc, type: 3}
  description: "Jacob usa magia para afilar su espada, concediendole un da\xF1o de
    sangrado y un area de ataque mayor al normal durante 15 segundos."
  isActive: 0
  buffActive: 0
