%YAML 1.1
%TAG !u! tag:unity3d.com,2011:
--- !u!114 &-2093590017316943063
MonoBehaviour:
  m_ObjectHideFlags: 11
  m_CorrespondingSourceObject: {fileID: 0}
  m_PrefabInstance: {fileID: 0}
  m_PrefabAsset: {fileID: 0}
  m_GameObject: {fileID: 0}
  m_Enabled: 1
  m_EditorHideFlags: 0
  m_Script: {fileID: 11500000, guid: d0353a89b1f911e48b9e16bdc9f2e058, type: 3}
  m_Name: 
  m_EditorClassIdentifier: 
  version: 5
--- !u!21 &2100000
Material:
  serializedVersion: 8
  m_ObjectHideFlags: 0
  m_CorrespondingSourceObject: {fileID: 0}
  m_PrefabInstance: {fileID: 0}
  m_PrefabAsset: {fileID: 0}
  m_Name: ArrowShader
  m_Shader: {fileID: -6465566751694194690, guid: db9d7ed496f8af94c9e2fd38215d412b, type: 3}
  m_ValidKeywords: []
  m_InvalidKeywords: []
  m_LightmapFlags: 2
  m_EnableInstancingVariants: 0
  m_DoubleSidedGI: 0
  m_CustomRenderQueue: -1
  stringTagMap: {}
  disabledShaderPasses: []
  m_SavedProperties:
    serializedVersion: 3
    m_TexEnvs:
    - unity_Lightmaps:
        m_Texture: {fileID: 0}
        m_Scale: {x: 1, y: 1}
        m_Offset: {x: 0, y: 0}
    - unity_LightmapsInd:
        m_Texture: {fileID: 0}
        m_Scale: {x: 1, y: 1}
        m_Offset: {x: 0, y: 0}
    - unity_ShadowMasks:
        m_Texture: {fileID: 0}
        m_Scale: {x: 1, y: 1}
        m_Offset: {x: 0, y: 0}
    m_Ints: []
    m_Floats:
    - Vector1_5076bd79777b45af9f21723cf5ce32c1: 3.5
    - Vector1_ea4600a9eabc42b59277f43bcd9f0e03: 10
    - _QueueControl: 0
    - _QueueOffset: 0
    m_Colors:
    - Color_431f22b716af4fa19a84d3146d3074e3: {r: 0.027261587, g: 0.003648994, b: 0.7735849, a: 1}
    - Color_b6154f3be324463c8778b803cd1eff7c: {r: 0, g: 4.9598546, b: 6.693451, a: 1}
    - Vector3_1c5d786c6f9348abb760fe7d1c2cd091: {r: 0, g: 0, b: 0, a: 0}
  m_BuildTextureStacks: []
