%YAML 1.1
%TAG !u! tag:unity3d.com,2011:
--- !u!114 &-8419142960457854979
MonoBehaviour:
  m_ObjectHideFlags: 3
  m_CorrespondingSourceObject: {fileID: 0}
  m_PrefabInstance: {fileID: 0}
  m_PrefabAsset: {fileID: 0}
  m_GameObject: {fileID: 0}
  m_Enabled: 1
  m_EditorHideFlags: 0
  m_Script: {fileID: 11500000, guid: 558a8e2b6826cf840aae193990ba9f2e, type: 3}
  m_Name: ShadowsMidtonesHighlights
  m_EditorClassIdentifier: 
  active: 1
  shadows:
    m_OverrideState: 1
    m_Value: {x: 1, y: 0.9143079, z: 0.7883556, w: 0}
  midtones:
    m_OverrideState: 1
    m_Value: {x: 1, y: 1, z: 1, w: 0}
  highlights:
    m_OverrideState: 1
    m_Value: {x: 0.8582127, y: 0.9418113, z: 1, w: 0}
  shadowsStart:
    m_OverrideState: 1
    m_Value: 0
  shadowsEnd:
    m_OverrideState: 1
    m_Value: 0.3
  highlightsStart:
    m_OverrideState: 1
    m_Value: 0.55
  highlightsEnd:
    m_OverrideState: 1
    m_Value: 1
--- !u!114 &-6663543244708385325
MonoBehaviour:
  m_ObjectHideFlags: 3
  m_CorrespondingSourceObject: {fileID: 0}
  m_PrefabInstance: {fileID: 0}
  m_PrefabAsset: {fileID: 0}
  m_GameObject: {fileID: 0}
  m_Enabled: 1
  m_EditorHideFlags: 0
  m_Script: {fileID: 11500000, guid: 97c23e3b12dc18c42a140437e53d3951, type: 3}
  m_Name: Tonemapping
  m_EditorClassIdentifier: 
  active: 1
  mode:
    m_OverrideState: 1
    m_Value: 2
--- !u!114 &-5130289475394297455
MonoBehaviour:
  m_ObjectHideFlags: 3
  m_CorrespondingSourceObject: {fileID: 0}
  m_PrefabInstance: {fileID: 0}
  m_PrefabAsset: {fileID: 0}
  m_GameObject: {fileID: 0}
  m_Enabled: 1
  m_EditorHideFlags: 0
  m_Script: {fileID: 11500000, guid: 0b2db86121404754db890f4c8dfe81b2, type: 3}
  m_Name: Bloom
  m_EditorClassIdentifier: 
  active: 1
  threshold:
    m_OverrideState: 1
    m_Value: 0.5
  intensity:
    m_OverrideState: 1
    m_Value: 0.5
  scatter:
    m_OverrideState: 1
    m_Value: 0.7
  clamp:
    m_OverrideState: 1
    m_Value: 65472
  tint:
    m_OverrideState: 1
    m_Value: {r: 1, g: 1, b: 1, a: 1}
  highQualityFiltering:
    m_OverrideState: 1
    m_Value: 0
  skipIterations:
    m_OverrideState: 1
    m_Value: 1
  dirtTexture:
    m_OverrideState: 1
    m_Value: {fileID: 0}
  dirtIntensity:
    m_OverrideState: 1
    m_Value: 0
--- !u!114 &11400000
MonoBehaviour:
  m_ObjectHideFlags: 0
  m_CorrespondingSourceObject: {fileID: 0}
  m_PrefabInstance: {fileID: 0}
  m_PrefabAsset: {fileID: 0}
  m_GameObject: {fileID: 0}
  m_Enabled: 1
  m_EditorHideFlags: 0
  m_Script: {fileID: 11500000, guid: d7fd9488000d3734a9e00ee676215985, type: 3}
  m_Name: Lobby1
  m_EditorClassIdentifier: 
  components:
  - {fileID: -5130289475394297455}
  - {fileID: -6663543244708385325}
  - {fileID: -8419142960457854979}
  - {fileID: 8117998180827020267}
  - {fileID: 2467852432810169233}
  - {fileID: 6992067530832191896}
  - {fileID: 6727674133618047450}
--- !u!114 &2467852432810169233
MonoBehaviour:
  m_ObjectHideFlags: 3
  m_CorrespondingSourceObject: {fileID: 0}
  m_PrefabInstance: {fileID: 0}
  m_PrefabAsset: {fileID: 0}
  m_GameObject: {fileID: 0}
  m_Enabled: 1
  m_EditorHideFlags: 0
  m_Script: {fileID: 11500000, guid: c01700fd266d6914ababb731e09af2eb, type: 3}
  m_Name: DepthOfField
  m_EditorClassIdentifier: 
  active: 1
  mode:
    m_OverrideState: 1
    m_Value: 1
  gaussianStart:
    m_OverrideState: 1
    m_Value: 500
  gaussianEnd:
    m_OverrideState: 1
    m_Value: 5000
  gaussianMaxRadius:
    m_OverrideState: 1
    m_Value: 1.5
  highQualitySampling:
    m_OverrideState: 1
    m_Value: 1
  focusDistance:
    m_OverrideState: 1
    m_Value: 10
  aperture:
    m_OverrideState: 1
    m_Value: 5.6
  focalLength:
    m_OverrideState: 1
    m_Value: 50
  bladeCount:
    m_OverrideState: 1
    m_Value: 5
  bladeCurvature:
    m_OverrideState: 1
    m_Value: 1
  bladeRotation:
    m_OverrideState: 1
    m_Value: 0
--- !u!114 &6727674133618047450
MonoBehaviour:
  m_ObjectHideFlags: 3
  m_CorrespondingSourceObject: {fileID: 0}
  m_PrefabInstance: {fileID: 0}
  m_PrefabAsset: {fileID: 0}
  m_GameObject: {fileID: 0}
  m_Enabled: 1
  m_EditorHideFlags: 0
  m_Script: {fileID: 11500000, guid: 29fa0085f50d5e54f8144f766051a691, type: 3}
  m_Name: FilmGrain
  m_EditorClassIdentifier: 
  active: 1
  type:
    m_OverrideState: 1
    m_Value: 1
  intensity:
    m_OverrideState: 1
    m_Value: 0.116
  response:
    m_OverrideState: 1
    m_Value: 0.143
  texture:
    m_OverrideState: 1
    m_Value: {fileID: 0}
--- !u!114 &6992067530832191896
MonoBehaviour:
  m_ObjectHideFlags: 3
  m_CorrespondingSourceObject: {fileID: 0}
  m_PrefabInstance: {fileID: 0}
  m_PrefabAsset: {fileID: 0}
  m_GameObject: {fileID: 0}
  m_Enabled: 1
  m_EditorHideFlags: 0
  m_Script: {fileID: 11500000, guid: 66f335fb1ffd8684294ad653bf1c7564, type: 3}
  m_Name: ColorAdjustments
  m_EditorClassIdentifier: 
  active: 1
  postExposure:
    m_OverrideState: 1
    m_Value: 0.2
  contrast:
    m_OverrideState: 1
    m_Value: 2
  colorFilter:
    m_OverrideState: 1
    m_Value: {r: 1, g: 0.92854935, b: 0.9009434, a: 1}
  hueShift:
    m_OverrideState: 1
    m_Value: 0
  saturation:
    m_OverrideState: 1
    m_Value: 0
--- !u!114 &8117998180827020267
MonoBehaviour:
  m_ObjectHideFlags: 3
  m_CorrespondingSourceObject: {fileID: 0}
  m_PrefabInstance: {fileID: 0}
  m_PrefabAsset: {fileID: 0}
  m_GameObject: {fileID: 0}
  m_Enabled: 1
  m_EditorHideFlags: 0
  m_Script: {fileID: 11500000, guid: 899c54efeace73346a0a16faa3afe726, type: 3}
  m_Name: Vignette
  m_EditorClassIdentifier: 
  active: 1
  color:
    m_OverrideState: 1
    m_Value: {r: 0, g: 0, b: 0, a: 1}
  center:
    m_OverrideState: 1
    m_Value: {x: 0.5, y: 0.5}
  intensity:
    m_OverrideState: 1
    m_Value: 0.3
  smoothness:
    m_OverrideState: 1
    m_Value: 0.45
  rounded:
    m_OverrideState: 1
    m_Value: 0
